…
biden_ci

## # A tibble: 40 x 10
##    week_of_year na.rm mean_approval_margin sd_approval_margin count t_critical
##           <dbl> <lgl>                <dbl>              <dbl> <int>      <dbl>
##  1            3 TRUE                  18.6               4.02    11       2.23
##  2            4 TRUE                  18.2               4.58    51       2.01
##  3            5 TRUE                  16.5               3.49    54       2.01
##  4            6 TRUE                  16.9               3.81    37       2.03
##  5            7 TRUE                  16.2               4.04    50       2.01
##  6            8 TRUE                  14.6               3.40    50       2.01
##  7            9 TRUE                  13.1               3.56    53       2.01
##  8           10 TRUE                  13.0               3.48    49       2.01
##  9           11 TRUE                  16.2               3.77    43       2.02
## 10           12 TRUE                  14.0               5.28    57       2.00
## # ... with 30 more rows, and 4 more variables: se_approval_margin <dbl>,
## #   margin_of_error <dbl>, approval_margin_low <dbl>,
## #   approval_margin_high <dbl>
…
