…
#skimr::skim(yield_curve$duration)

yield_curve_table <- yield_curve %>% 
                     mutate(duration = factor(duration, levels= c("3-Month Treasury Bill", "6-Month Treasury Bill", "1-Year Treasury Rate","2-Year Treasury Rate", "3-Year Treasury Rate", "5-Year Treasury Rate", "7-Year Treasury Rate", "10-Year Treasury Rate","20-Year Treasury Rate", "30-Year Treasury Rate")),
                            maturity = factor(maturity, levels= c("3m", "6m", "1y", "2y","3y","5y","7y","10y","20y","30y"))) 

yield_curve_table

## # A tibble: 6,884 x 5
##    date       series_id value maturity duration             
##    <date>     <chr>     <dbl> <fct>    <fct>                
##  1 1960-01-01 TB3MS      4.35 3m       3-Month Treasury Bill
##  2 1960-02-01 TB3MS      3.96 3m       3-Month Treasury Bill
##  3 1960-03-01 TB3MS      3.31 3m       3-Month Treasury Bill
##  4 1960-04-01 TB3MS      3.23 3m       3-Month Treasury Bill
##  5 1960-05-01 TB3MS      3.29 3m       3-Month Treasury Bill
##  6 1960-06-01 TB3MS      2.46 3m       3-Month Treasury Bill
##  7 1960-07-01 TB3MS      2.3  3m       3-Month Treasury Bill
##  8 1960-08-01 TB3MS      2.3  3m       3-Month Treasury Bill
##  9 1960-09-01 TB3MS      2.48 3m       3-Month Treasury Bill
## 10 1960-10-01 TB3MS      2.3  3m       3-Month Treasury Bill
## # ... with 6,874 more rows

yield_curve_table_1 <- yield_curve_table %>%   
                       select("date", "value", "duration") %>% 
                       filter(duration %in% c("3-Month Treasury Bill","10-Year Treasury Rate")) %>% 
                       pivot_wider(names_from = duration , values_from = value) 

colnames(yield_curve_table_1) = c("date", "three_month", "ten_year" )

yield_curve_table_1                   

## # A tibble: 740 x 3
##    date       three_month ten_year
##    <date>           <dbl>    <dbl>
##  1 1960-01-01        4.35     4.72
##  2 1960-02-01        3.96     4.49
##  3 1960-03-01        3.31     4.25
##  4 1960-04-01        3.23     4.28
##  5 1960-05-01        3.29     4.35
##  6 1960-06-01        2.46     4.15
##  7 1960-07-01        2.3      3.9 
##  8 1960-08-01        2.3      3.8 
##  9 1960-09-01        2.48     3.8 
## 10 1960-10-01        2.3      3.89
## # ... with 730 more rows

yield_curve_table_2 <- yield_curve_table_1 %>%
                       group_by(date) %>%
                       mutate(difference = ten_year-three_month,
                              up = ifelse(difference>0, difference,0),
                              down = ifelse(difference<0, difference,0),
                              color_id = if_else(difference>0,"steelblue1","tomato2"))

yield_curve_table_2

## # A tibble: 740 x 7
## # Groups:   date [740]
##    date       three_month ten_year difference    up  down color_id  
##    <date>           <dbl>    <dbl>      <dbl> <dbl> <dbl> <chr>     
##  1 1960-01-01        4.35     4.72       0.37  0.37     0 steelblue1
##  2 1960-02-01        3.96     4.49       0.53  0.53     0 steelblue1
##  3 1960-03-01        3.31     4.25       0.94  0.94     0 steelblue1
##  4 1960-04-01        3.23     4.28       1.05  1.05     0 steelblue1
##  5 1960-05-01        3.29     4.35       1.06  1.06     0 steelblue1
##  6 1960-06-01        2.46     4.15       1.69  1.69     0 steelblue1
##  7 1960-07-01        2.3      3.9        1.6   1.6      0 steelblue1
##  8 1960-08-01        2.3      3.8        1.5   1.5      0 steelblue1
##  9 1960-09-01        2.48     3.8        1.32  1.32     0 steelblue1
## 10 1960-10-01        2.3      3.89       1.59  1.59     0 steelblue1
## # ... with 730 more rows
…
